{
  "current_page": 1,
  "data": [
    {
      "id": 1,
      "fellow_id": "-LSKaKObA5T-XFQIUEKV",
      "first_name": "Chidozie",
      "last_name": "Nwoga",
      "email": "chidozie.nwoga@andela.com",
      "picture": "https://lorempixel.com/100/100/people/?39044",
      "cohort": "KLA-1",
      "sims_project": "AuthorsHaven",
      "sims_project_technology": "Python/Django",
      "sims_start_date": "2018-10-31 00:00:00",
      "sims_end_date": "2019-01-10 00:00:00",
      "cadre_start_date": null,
      "sims_manager": "Duncan Ireri",
      "apprenticeship_project": "WatchTower",
      "apprenticeship_technology": "Javascript/Ruby",
      "apprenticeship_start_date": "2019-06-11 00:00:00",
      "apprenticeship_end_date": "2019-06-26 00:00:00",
      "apprenticeship_manager": "Njenga Njunge",
      "account_active": false,
      "email_sent": false,
      "project_id": null,
      "project_role_id": null,
      "created_at": null,
      "updated_at": null,
      "project": null,
      "role": "TC"
    },
    {
      "id": 2,
      "fellow_id": "-LC8zTmDnKCIjiXf29-y",
      "first_name": "Ronald",
      "last_name": "Mutebi",
      "email": "ronald.mutebi@andela.com",
      "picture": "https://lorempixel.com/100/100/people/?13109",
      "cohort": "KLA-2",
      "sims_project": "AuthorsHaven",
      "sims_project_technology": "Python/Django",
      "sims_start_date": "2018-10-22 00:00:00",
      "sims_end_date": "2019-02-21 00:00:00",
      "cadre_start_date": null,
      "sims_manager": "Victoria Offoma",
      "apprenticeship_project": "WatchTower",
      "apprenticeship_technology": "Javascript/Ruby",
      "apprenticeship_start_date": "2019-06-05 00:00:00",
      "apprenticeship_end_date": "2019-06-20 00:00:00",
      "apprenticeship_manager": "Njenga Njunge",
      "account_active": false,
      "email_sent": false,
      "project_id": null,
      "project_role_id": null,
      "created_at": null,
      "updated_at": null,
      "project": null,
      "role": "TC"
    },
    {
      "id": 3,
      "fellow_id": "-LONlfPRQ9t1dFdgu2y8",
      "first_name": "Brian",
      "last_name": "Bett",
      "email": "brian.bett@andela.com",
      "picture": "https://lorempixel.com/100/100/people/?43935",
      "cohort": "KLA-3",
      "sims_project": "AuthorsHaven",
      "sims_project_technology": "Python/Django",
      "sims_start_date": "2018-11-07 00:00:00",
      "sims_end_date": "2019-01-05 00:00:00",
      "cadre_start_date": null,
      "sims_manager": "Victoria Offoma",
      "apprenticeship_project": "WatchTower",
      "apprenticeship_technology": "Javascript/Ruby",
      "apprenticeship_start_date": "2019-06-07 00:00:00",
      "apprenticeship_end_date": "2019-06-29 00:00:00",
      "apprenticeship_manager": "Njenga Njunge",
      "account_active": false,
      "email_sent": false,
      "project_id": null,
      "project_role_id": null,
      "created_at": null,
      "updated_at": null,
      "project": null,
      "role": "TC"
    },
    {
      "id": 4,
      "fellow_id": "-L9BGHvLBPPIAXMwx5kX",
      "first_name": "Collins",
      "last_name": "Muru",
      "email": "collins.muru@andela.com",
      "picture": "https://lorempixel.com/100/100/people/?13109",
      "cohort": "KLA-4",
      "sims_project": "AuthorsHaven",
      "sims_project_technology": "Python/Django",
      "sims_start_date": "2018-11-02 00:00:00",
      "sims_end_date": "2019-01-17 00:00:00",
      "cadre_start_date": null,
      "sims_manager": "Victoria Offoma",
      "apprenticeship_project": "WatchTower",
      "apprenticeship_technology": "Javascript/Ruby",
      "apprenticeship_start_date": "2019-06-04 00:00:00",
      "apprenticeship_end_date": "2019-06-15 00:00:00",
      "apprenticeship_manager": "Njenga Njunge",
      "account_active": false,
      "email_sent": false,
      "project_id": null,
      "project_role_id": null,
      "created_at": null,
      "updated_at": null,
      "project": null,
      "role": "TC"
    },
    {
      "id": 5,
      "fellow_id": "-LQcqbQzyNpIlfJreeiZ",
      "first_name": "Baker",
      "last_name": "Sekitoleko",
      "email": "baker.sekitoleko@andela.com",
      "picture": "https://lorempixel.com/100/100/people/?23475",
      "cohort": "KLA-5",
      "sims_project": "AuthorsHaven",
      "sims_project_technology": "Python/Django",
      "sims_start_date": "2018-10-28 00:00:00",
      "sims_end_date": "2019-02-05 00:00:00",
      "cadre_start_date": null,
      "sims_manager": "Martin Baale",
      "apprenticeship_project": "WatchTower",
      "apprenticeship_technology": "Javascript/Ruby",
      "apprenticeship_start_date": "2019-06-06 00:00:00",
      "apprenticeship_end_date": "2019-06-24 00:00:00",
      "apprenticeship_manager": "Njenga Njunge",
      "account_active": false,
      "email_sent": false,
      "project_id": null,
      "project_role_id": null,
      "created_at": null,
      "updated_at": null,
      "project": null,
      "role": "TC"
    },
    {
      "id": 6,
      "fellow_id": "-LSK_lcw0_TQdDTY11ow",
      "first_name": "Peace",
      "last_name": "Oyedeji",
      "email": "peace.oyedeji@andela.com",
      "picture": "https://lorempixel.com/100/100/people/?23475",
      "cohort": "KLA-6",
      "sims_project": "AuthorsHaven",
      "sims_project_technology": "Python/Django",
      "sims_start_date": "2018-10-23 00:00:00",
      "sims_end_date": "2019-01-19 00:00:00",
      "cadre_start_date": null,
      "sims_manager": "Martin Baale",
      "apprenticeship_project": "WatchTower",
      "apprenticeship_technology": "Android",
      "apprenticeship_start_date": "2019-06-10 00:00:00",
      "apprenticeship_end_date": "2019-06-16 00:00:00",
      "apprenticeship_manager": "Roger Taracha",
      "account_active": false,
      "email_sent": false,
      "project_id": null,
      "project_role_id": null,
      "created_at": null,
      "updated_at": null,
      "project": null,
      "role": null
    },
    {
      "id": 7,
      "fellow_id": "-LLUploBG_-tXDaBuxzb",
      "first_name": "Brian",
      "last_name": "Ashiundu",
      "email": "brian.mboya@andela.com",
      "picture": "https://lorempixel.com/100/100/people/?39044",
      "cohort": "KLA-7",
      "sims_project": "AuthorsHaven",
      "sims_project_technology": "Python/Django",
      "sims_start_date": "2018-11-08 00:00:00",
      "sims_end_date": "2019-02-16 00:00:00",
      "cadre_start_date": null,
      "sims_manager": "Martin Baale",
      "apprenticeship_project": "WatchTower",
      "apprenticeship_technology": "Android",
      "apprenticeship_start_date": "2019-06-13 00:00:00",
      "apprenticeship_end_date": "2019-06-14 00:00:00",
      "apprenticeship_manager": "Roger Taracha",
      "account_active": false,
      "email_sent": false,
      "project_id": null,
      "project_role_id": null,
      "created_at": null,
      "updated_at": null,
      "project": null,
      "role": null
    },
    {
      "id": 8,
      "fellow_id": "-LQdd1UDOZec3bdQzH2O",
      "first_name": "Eric",
      "last_name": "Nyokabi",
      "email": "erick.nyokabi@andela.com",
      "picture": "https://lorempixel.com/100/100/people/?35451",
      "cohort": "KLA-8",
      "sims_project": "AuthorsHaven",
      "sims_project_technology": "Python/Django",
      "sims_start_date": "2018-11-09 00:00:00",
      "sims_end_date": "2019-01-30 00:00:00",
      "cadre_start_date": null,
      "sims_manager": "Brian Maiyo",
      "apprenticeship_project": "WatchTower",
      "apprenticeship_technology": "Android",
      "apprenticeship_start_date": "2019-06-09 00:00:00",
      "apprenticeship_end_date": "2019-06-19 00:00:00",
      "apprenticeship_manager": "Roger Taracha",
      "account_active": false,
      "email_sent": false,
      "project_id": null,
      "project_role_id": null,
      "created_at": null,
      "updated_at": null,
      "project": null,
      "role": null
    },
    {
      "id": 9,
      "fellow_id": "-LLUW2BwQiZS0j9KF10j",
      "first_name": "Fred",
      "last_name": "Adegoke",
      "email": "fred.adegoke@andela.com",
      "picture": "https://lorempixel.com/100/100/people/?13109",
      "cohort": "Lagos-1",
      "sims_project": "AuthorsHaven",
      "sims_project_technology": "Python/Django",
      "sims_start_date": "2018-10-21 00:00:00",
      "sims_end_date": "2019-02-25 00:00:00",
      "cadre_start_date": null,
      "sims_manager": "Brian Maiyo",
      "apprenticeship_project": "WatchTower",
      "apprenticeship_technology": "Android",
      "apprenticeship_start_date": "2019-06-03 00:00:00",
      "apprenticeship_end_date": "2019-06-21 00:00:00",
      "apprenticeship_manager": "Roger Taracha",
      "account_active": false,
      "email_sent": false,
      "project_id": null,
      "project_role_id": null,
      "created_at": null,
      "updated_at": null,
      "project": null,
      "role": null
    },
    {
      "id": 10,
      "fellow_id": "-LQZkSBEZi5DQ-J4yQ-9",
      "first_name": "Ibrahim",
      "last_name": "Alausa",
      "email": "ibrahim.alausa@andela.com",
      "picture": "https://lorempixel.com/100/100/people/?35451",
      "cohort": "Lagos-2",
      "sims_project": "AuthorsHaven",
      "sims_project_technology": "Python/Go",
      "sims_start_date": "2018-10-20 00:00:00",
      "sims_end_date": "2019-01-11 00:00:00",
      "cadre_start_date": null,
      "sims_manager": "Brian Maiyo",
      "apprenticeship_project": "WatchTower",
      "apprenticeship_technology": "Devops",
      "apprenticeship_start_date": "2019-06-12 00:00:00",
      "apprenticeship_end_date": "2019-06-28 00:00:00",
      "apprenticeship_manager": "Jason Okagbare",
      "account_active": false,
      "email_sent": false,
      "project_id": null,
      "project_role_id": null,
      "created_at": null,
      "updated_at": null,
      "project": null,
      "role": null
    },
    {
      "id": 11,
      "fellow_id": "-LLUpLy53gzYC02PhXK2",
      "first_name": "Lazarus",
      "last_name": "Odhiambo",
      "email": "lazarus.odhiambo@andela.com",
      "picture": "https://lorempixel.com/100/100/people/?39044",
      "cohort": "Lagos-3",
      "sims_project": "AuthorsHaven",
      "sims_project_technology": "Python/Go",
      "sims_start_date": "2018-10-19 00:00:00",
      "sims_end_date": "2019-01-16 00:00:00",
      "cadre_start_date": null,
      "sims_manager": "Brian Maiyo",
      "apprenticeship_project": "WatchTower",
      "apprenticeship_technology": "Devops",
      "apprenticeship_start_date": "2019-06-08 00:00:00",
      "apprenticeship_end_date": "2019-06-27 00:00:00",
      "apprenticeship_manager": "Jason Okagbare",
      "account_active": false,
      "email_sent": false,
      "project_id": null,
      "project_role_id": null,
      "created_at": null,
      "updated_at": null,
      "project": null,
      "role": null
    },
    {
      "id": 12,
      "fellow_id": "-LLUWJwQ6jw2xwXpZreD",
      "first_name": "Oluseyi",
      "last_name": "Anani",
      "email": "oluseyi.anani@andela.com",
      "picture": "https://lorempixel.com/100/100/people/?13109",
      "cohort": "Lagos-4",
      "sims_project": "AuthorsHaven",
      "sims_project_technology": "Python/Go",
      "sims_start_date": "2018-11-03 00:00:00",
      "sims_end_date": "2019-01-23 00:00:00",
      "cadre_start_date": null,
      "sims_manager": "Daniel Ale",
      "apprenticeship_project": "WatchTower",
      "apprenticeship_technology": "Devops",
      "apprenticeship_start_date": "2019-06-02 00:00:00",
      "apprenticeship_end_date": "2019-06-23 00:00:00",
      "apprenticeship_manager": "Jason Okagbare",
      "account_active": false,
      "email_sent": false,
      "project_id": null,
      "project_role_id": null,
      "created_at": null,
      "updated_at": null,
      "project": null,
      "role": null
    },
    {
      "id": 13,
      "fellow_id": "-LQdbZPS_yMPuO8LjGjC",
      "first_name": "Paul",
      "last_name": "Gichuki",
      "email": "paul.gichuki@andela.com",
      "picture": "https://lorempixel.com/100/100/people/?43935",
      "cohort": "Lagos-5",
      "sims_project": "AuthorsHaven",
      "sims_project_technology": "Python/Go",
      "sims_start_date": "2018-10-26 00:00:00",
      "sims_end_date": "2019-02-20 00:00:00",
      "cadre_start_date": null,
      "sims_manager": "Daniel Ale",
      "apprenticeship_project": "WatchTower",
      "apprenticeship_technology": "Devops",
      "apprenticeship_start_date": "2019-06-12 00:00:00",
      "apprenticeship_end_date": "2019-06-22 00:00:00",
      "apprenticeship_manager": "Jason Okagbare",
      "account_active": false,
      "email_sent": false,
      "project_id": null,
      "project_role_id": null,
      "created_at": null,
      "updated_at": null,
      "project": null,
      "role": null
    },
    {
      "id": 14,
      "fellow_id": "-LQdcYBwXM9khXkSHg4I",
      "first_name": "Steven",
      "last_name": "Otieno",
      "email": "steven.otieno@andela.com",
      "picture": "https://lorempixel.com/100/100/people/?13109",
      "cohort": "Lagos-6",
      "sims_project": "AuthorsHaven",
      "sims_project_technology": "Python/Go",
      "sims_start_date": "2018-11-10 00:00:00",
      "sims_end_date": "2019-01-09 00:00:00",
      "cadre_start_date": null,
      "sims_manager": "Daniel Ale",
      "apprenticeship_project": "WatchTower",
      "apprenticeship_technology": "Devops",
      "apprenticeship_start_date": "2019-06-06 00:00:00",
      "apprenticeship_end_date": "2019-06-25 00:00:00",
      "apprenticeship_manager": "Jason Okagbare",
      "account_active": false,
      "email_sent": false,
      "project_id": null,
      "project_role_id": null,
      "created_at": null,
      "updated_at": null,
      "project": null,
      "role": null
    },
    {
      "id": 15,
      "fellow_id": "-LSKa7Lv0YJtaXSlGbog",
      "first_name": "Wasibani",
      "last_name": "Roy",
      "email": "roy.wasibani@andela.com",
      "picture": "https://lorempixel.com/100/100/people/?23475",
      "cohort": "Lagos-7",
      "sims_project": "AuthorsHaven",
      "sims_project_technology": "Python/Go",
      "sims_start_date": "2018-11-12 00:00:00",
      "sims_end_date": "2019-02-17 00:00:00",
      "cadre_start_date": null,
      "sims_manager": "Daniel Ale",
      "apprenticeship_project": "WatchTower",
      "apprenticeship_technology": "Devops",
      "apprenticeship_start_date": "2019-06-02 00:00:00",
      "apprenticeship_end_date": "2019-06-17 00:00:00",
      "apprenticeship_manager": "Jason Okagbare",
      "account_active": false,
      "email_sent": false,
      "project_id": null,
      "project_role_id": null,
      "created_at": null,
      "updated_at": null,
      "project": null,
      "role": null
    },
    {
      "id": 16,
      "fellow_id": "-LP5MeqRJFJQGKwfG1vr",
      "first_name": "Lindsey",
      "last_name": "Patra",
      "email": "lindsey.patra@andela.com",
      "picture": "https://lorempixel.com/100/100/people/?35451",
      "cohort": "Lagos-8",
      "sims_project": "AuthorsHaven",
      "sims_project_technology": "Python/Go",
      "sims_start_date": "2018-11-13 00:00:00",
      "sims_end_date": "2019-02-18 00:00:00",
      "cadre_start_date": null,
      "sims_manager": "Daniel Ale",
      "apprenticeship_project": "WatchTower",
      "apprenticeship_technology": "PHP/Lumen",
      "apprenticeship_start_date": "2019-06-03 00:00:00",
      "apprenticeship_end_date": "2019-06-18 00:00:00",
      "apprenticeship_manager": "Olaolu Akinsete",
      "account_active": false,
      "email_sent": false,
      "project_id": null,
      "project_role_id": null,
      "created_at": null,
      "updated_at": null,
      "project": null,
      "role": null
    },
    {
      "id": 17,
      "fellow_id": "-LQZkSO0EbLk96oQmz34",
      "first_name": "Didunloluwa ",
      "last_name": "Morodolu",
      "email": "didunloluwa.morodolu@andela.com",
      "picture": "https://lorempixel.com/100/100/people/?23475",
      "cohort": "NBO-9",
      "sims_project": "AuthorsHaven",
      "sims_project_technology": "Python/Go",
      "sims_start_date": "2018-11-14 00:00:00",
      "sims_end_date": "2019-02-19 00:00:00",
      "cadre_start_date": null,
      "sims_manager": "Daniel Ale",
      "apprenticeship_project": "WatchTower",
      "apprenticeship_technology": "PHP/Lumen",
      "apprenticeship_start_date": "2019-06-04 00:00:00",
      "apprenticeship_end_date": "2019-06-19 00:00:00",
      "apprenticeship_manager": "Olaolu Akinsete",
      "account_active": false,
      "email_sent": false,
      "project_id": null,
      "project_role_id": null,
      "created_at": null,
      "updated_at": null,
      "project": null,
      "role": null
    },
    {
      "id": 18,
      "fellow_id": "-LP5MeqRJFJQGKwfG1vd",
      "first_name": "Ivan",
      "last_name": "Rutale",
      "email": "ivan.rutale@andela.com",
      "picture": "https://lorempixel.com/100/100/people/?23475 ",
      "cohort": "NBO-10",
      "sims_project": "AuthorsHaven",
      "sims_project_technology": "Python/Go",
      "sims_start_date": "2018-11-14 00:00:00",
      "sims_end_date": "2019-02-19 00:00:00",
      "cadre_start_date": null,
      "sims_manager": "Daniel Ale",
      "apprenticeship_project": "WatchTower",
      "apprenticeship_technology": "PHP/Lumen",
      "apprenticeship_start_date": "2019-06-04 00:00:00",
      "apprenticeship_end_date": "2019-06-04 00:00:00",
      "apprenticeship_manager": "Olaolu Akinsete",
      "account_active": false,
      "email_sent": false,
      "project_id": null,
      "project_role_id": null,
      "created_at": null,
      "updated_at": null,
      "project": null,
      "role": null
    },
    {
      "id": 19,
      "fellow_id": "-LP5MeqRJFJQGKwG1vd",
      "first_name": "Morris",
      "last_name": "Njuguna",
      "email": "morris.njuguna@andela.com",
      "picture": "https://lorempixel.com/100/100/people/?23475 ",
      "cohort": "NBO-11",
      "sims_project": "AuthorsHaven",
      "sims_project_technology": "Python/Go",
      "sims_start_date": "2019-02-19 00:00:00",
      "sims_end_date": "2019-02-19 00:00:00",
      "cadre_start_date": null,
      "sims_manager": "Olaolu Akinsete",
      "apprenticeship_project": "WatchTower",
      "apprenticeship_technology": "PHP/Lumen",
      "apprenticeship_start_date": "2019-06-04 00:00:00",
      "apprenticeship_end_date": "2019-06-04 00:00:00",
      "apprenticeship_manager": "Olaolu Akinsete",
      "account_active": false,
      "email_sent": false,
      "project_id": null,
      "project_role_id": null,
      "created_at": null,
      "updated_at": null,
      "project": null,
      "role": null
    },
    {
      "id": 20,
      "fellow_id": "-LP5MeqJFJQGKwG1vd",
      "first_name": "Vincent",
      "last_name": " Odhiambo",
      "email": "vincent. odhiambo@andela.com",
      "picture": "https://lorempixel.com/100/100/people/?23475",
      "cohort": "NBO-12",
      "sims_project": "AuthorsHaven",
      "sims_project_technology": "Python/Go",
      "sims_start_date": "2019-10-19 00:00:00",
      "sims_end_date": "2019-12-19 00:00:00",
      "cadre_start_date": null,
      "sims_manager": "Olaolu Akinsete",
      "apprenticeship_project": "WatchTower",
      "apprenticeship_technology": "Devops",
      "apprenticeship_start_date": "2019-06-12 00:00:00",
      "apprenticeship_end_date": "2019-06-05 00:00:00",
      "apprenticeship_manager": "Olaolu Akinsete",
      "account_active": false,
      "email_sent": false,
      "project_id": null,
      "project_role_id": null,
      "created_at": null,
      "updated_at": null,
      "project": null,
      "role": null
    }
  ],
  "first_page_url": "http://localhost:8000/api/v2/reports/fellows?page=1",
  "from": 1,
  "last_page": 2,
  "last_page_url": "http://localhost:8000/api/v2/reports/fellows?page=2",
  "next_page_url": "http://localhost:8000/api/v2/reports/fellows?page=2",
  "path": "http://localhost:8000/api/v2/reports/fellows",
  "per_page": 20,
  "prev_page_url": null,
  "to": 20,
  "total": 24
}
